…
    ## [1] 0.2028836

Interestingly enough the correlation between the VIX\_High and
Option\_Volume separated by years is actually lower than the correlation
of all the data together. But something interesting happens here where
certain years have a very high correlation while others don’t.

    recissionDF <-joined_df %>% group_by(format(Date,format="%Y")) %>% summarise((max(SPY_Open)-min(SPY_Close)),mean(VIX_Close,na.rm=TRUE))

    names(recissionDF) <- c("Date","MaxOpenMinClose","AvgVIXClose")
    recissionDF$Date <- as.Date(recissionDF$Date,format="%Y")
    recissionDF

    ## # A tibble: 24 × 3
    ##    Date       MaxOpenMinClose AvgVIXClose
    ##    <date>               <dbl>       <dbl>
    ##  1 1999-01-19            12.5        21.9
    ##  2 2000-01-19            27.1        23.3
    ##  3 2001-01-19            40.1        25.7
    ##  4 2002-01-19            39.6        27.3
    ##  5 2003-01-19            30.7        22.0
    ##  6 2004-01-19            14.6        15.5
    ##  7 2005-01-19            14.0        12.8
    ##  8 2006-01-19            20.1        12.8
    ##  9 2007-01-19            19.6        17.5
    ## 10 2008-01-19            71.1        32.7
    ## # … with 14 more rows
…
